

 2007-08-03 only two flats, need to lower mask threshold !!!
 
 
 2008-04-30	defocused, need lower mask threshold
 
 2009-07-05T22:00:00 check dusts around this date
 

2009-12-17
 
 

Unfocussed stars in RG flats from :


2008-05-01T10:33:14


2008-06-23




